<?xml version="1.0" encoding="UTF-8"?>
<svg width="56px" height="56px" viewBox="0 0 56 56" version="1.1" xmlns="http://www.w3.org/2000/svg" xmlns:xlink="http://www.w3.org/1999/xlink">
    <!-- Generator: sketchtool 52.3 (67297) - http://www.bohemiancoding.com/sketch -->
    <title>FC0F2135-3CFD-4194-9C92-789086196F9D</title>
    <desc>Created with sketchtool.</desc>
    <g id="UI-kit" stroke="none" stroke-width="1" fill="none" fill-rule="evenodd">
        <g transform="translate(-369.000000, -291.000000)">
            <circle id="Oval-Copy" fill="#F2F2F2" cx="397" cy="319" r="28"></circle>
            <g id="Group-3-Copy" transform="translate(381.000000, 309.000000)" stroke="#000000" stroke-width="2">
                <polyline id="Stroke-1" transform="translate(5.000000, 10.000000) scale(-1, 1) translate(-5.000000, -10.000000) " points="0 0 10 10.0002405 0 20"></polyline>
                <path d="M1,10 L32,10" id="Stroke-3" transform="translate(16.500000, 10.500000) scale(-1, 1) translate(-16.500000, -10.500000) "></path>
            </g>
        </g>
    </g>
</svg>