<?xml version="1.0" encoding="UTF-8"?>
<svg width="14px" height="14px" viewBox="0 0 14 14" version="1.1" xmlns="http://www.w3.org/2000/svg">
    <!-- Generator: sketchtool 52.3 (67297) - http://www.bohemiancoding.com/sketch -->
    <title>C6A35420-6252-4E36-8927-EB0C97B46936</title>
    <desc>Created with sketchtool.</desc>
    <g id="UI-kit" stroke="none" stroke-width="1" fill="none" fill-rule="evenodd">
        <g transform="translate(-278.000000, -5286.000000)" id="Group-33">
            <g transform="translate(275.000000, 5283.000000)">
                <rect id="Rectangle" stroke="#9B9494" stroke-width="1.4" fill="transparent" x="0.7" y="0.7" width="18.6"
                      height="18.6" rx="4"></rect>
                <path d="M7.90779974,14.6171782 L4.24092543,10.2790834 C3.86594093,9.835424 3.93641215,9.18379928 4.39846202,8.82373989 C4.8607274,8.4630597 5.53914764,8.53134683 5.91434765,8.97521315 L8.70970625,12.2823793 L14.0594851,5.41497074 C14.4159359,4.95744699 15.0913391,4.86391432 15.567828,5.20617768 C16.0443169,5.54844103 16.1417267,6.19675486 15.7852759,6.65448553 L9.60729846,14.585104 C9.40838427,14.8404564 9.09783676,14.9935851 8.76573842,14.9997931 C8.75862664,15 8.75151487,15 8.74440309,15 C8.42006305,15 8.11253266,14.859701 7.90779974,14.6171782 Z"
                      id="Fill-1-Copy-27" fill="#49527A"></path>
            </g>
        </g>
    </g>
</svg>