<?xml version="1.0" encoding="UTF-8"?>
<svg width="56px" height="56px" viewBox="0 0 56 56" version="1.1" xmlns="http://www.w3.org/2000/svg">
    <!-- Generator: sketchtool 52.1 (67048) - http://www.bohemiancoding.com/sketch -->
    <title>6C78E980-3545-4053-8A4F-5ADB4B3FDC05</title>
    <desc>Created with sketchtool.</desc>
    <g id="UI-kit" stroke="none" stroke-width="1" fill="none" fill-rule="evenodd">
        <g transform="translate(-461.000000, -195.000000)" id="Group" stroke="#000000" stroke-width="2">
            <g transform="translate(473.000000, 213.000000)">
                <polyline id="Stroke-1" points="22 0 32 10.0002405 22 20"></polyline>
                <path d="M0,10 L31,10" id="Stroke-3"></path>
            </g>
        </g>
    </g>
</svg>