<?xml version="1.0" encoding="UTF-8"?>
<svg width="56px" height="56px" viewBox="0 0 56 56" version="1.1" xmlns="http://www.w3.org/2000/svg" xmlns:xlink="http://www.w3.org/1999/xlink">
    <!-- Generator: sketchtool 52.3 (67297) - http://www.bohemiancoding.com/sketch -->
    <title>258618ED-A663-4859-AC42-6505B785907E</title>
    <desc>Created with sketchtool.</desc>
    <g id="UI-kit" stroke="none" stroke-width="1" fill="none" fill-rule="evenodd">
        <g transform="translate(-642.000000, -195.000000)" id="Stroke-1-Copy" stroke="#1F2124" stroke-width="2">
            <polyline transform="translate(671.000000, 223.000000) rotate(-270.000000) translate(-671.000000, -223.000000) " points="664 209 678 223.000337 664 237"></polyline>
        </g>
    </g>
</svg>