<?xml version="1.0" encoding="UTF-8"?>
<svg width="56px" height="56px" viewBox="0 0 56 56" version="1.1" xmlns="http://www.w3.org/2000/svg" xmlns:xlink="http://www.w3.org/1999/xlink">
    <!-- Generator: sketchtool 52.3 (67297) - http://www.bohemiancoding.com/sketch -->
    <title>56964987-99DD-459E-8805-1F16DEFF1EDE</title>
    <desc>Created with sketchtool.</desc>
    <g id="UI-kit" stroke="none" stroke-width="1" fill="none" fill-rule="evenodd">
        <g transform="translate(-643.000000, -391.000000)">
            <circle id="Oval-Copy-5" fill="#FFC231" cx="671" cy="419" r="28"></circle>
            <polyline id="Stroke-1-Copy-3" stroke="#FFFFFF" stroke-width="2" transform="translate(671.000000, 422.000000) rotate(-270.000000) translate(-671.000000, -422.000000) " points="664 408 678 422.000337 664 436"></polyline>
        </g>
    </g>
</svg>