<?xml version="1.0" encoding="UTF-8"?>
<svg width="56px" height="56px" viewBox="0 0 56 56" version="1.1" xmlns="http://www.w3.org/2000/svg" xmlns:xlink="http://www.w3.org/1999/xlink">
    <!-- Generator: sketchtool 52.3 (67297) - http://www.bohemiancoding.com/sketch -->
    <title>A6C4C29B-CE84-4CF5-B8FC-4A6DF5E3A3F3</title>
    <desc>Created with sketchtool.</desc>
    <g id="UI-kit" stroke="none" stroke-width="1" fill="none" fill-rule="evenodd">
        <g transform="translate(-642.000000, -288.000000)">
            <circle id="Oval-Copy-4" fill="#F2F2F2" cx="671" cy="316" r="28"></circle>
            <polyline id="Stroke-1-Copy-2" stroke="#1F2124" stroke-width="2" transform="translate(671.000000, 319.000000) rotate(-270.000000) translate(-671.000000, -319.000000) " points="664 305 678 319.000337 664 333"></polyline>
        </g>
    </g>
</svg>