<?xml version="1.0" encoding="UTF-8"?>
<svg width="243px" height="198px" viewBox="0 0 243 198" version="1.1" xmlns="http://www.w3.org/2000/svg" xmlns:xlink="http://www.w3.org/1999/xlink">
    <!-- Generator: sketchtool 52.3 (67297) - http://www.bohemiancoding.com/sketch -->
    <title>8042552C-A422-457A-A256-D72D5B296E8C</title>
    <desc>Created with sketchtool.</desc>
    <g id="UI-kit" stroke="none" stroke-width="1" fill="none" fill-rule="evenodd">
        <g transform="translate(-95.000000, -4995.000000)" id="Group-6">
            <g transform="translate(97.000000, 4995.000000)">
                <ellipse id="Oval" fill-opacity="0.1" fill="#946ADE" transform="translate(121.000000, 99.000000) rotate(-26.000000) translate(-121.000000, -99.000000) " cx="121" cy="99" rx="106" ry="58"></ellipse>
                <path d="M157.527315,152.620817 L157.527315,68.2530692 C157.527315,65.6656757 155.482377,63.5596577 152.970024,63.5596577 L71.0491573,63.5596577 C68.5368048,63.5596577 66.4918668,65.6656757 66.4918668,68.2530692 L66.4918668,152.620817 C66.4918668,155.208211 68.5368048,157.314229 71.0491573,157.314229 L152.970024,157.314229 C155.482377,157.314229 157.527315,155.208211 157.527315,152.620817 Z M152.970024,56.8738864 C159.062641,56.8738864 164.019181,61.9818157 164.019181,68.2530692 L164.019181,152.620817 C164.019181,158.895414 159.062641,164 152.970024,164 L71.0491573,164 C64.9565403,164 60,158.895414 60,152.620817 L60,68.2530692 C60,61.9818157 64.9565403,56.8738864 71.0491573,56.8738864 L152.970024,56.8738864 Z M184.872132,73.6154551 L184.872132,148.664449 L189,148.664449 L181.520129,163.999331 L174.026823,148.664449 L178.154691,148.664449 L178.154691,73.6154551 L174.030182,73.6154551 L181.510053,58.2805727 L189,73.6154551 L184.872132,73.6154551 Z M75.0361687,43.8217108 L75.0361687,47.9385202 L60.0003246,40.4692601 L75.0361687,33 L75.0361687,37.1168094 L148.621668,37.1168094 L148.621668,33 L163.660778,40.4692601 L148.621668,47.9385202 L148.621668,43.8217108 L75.0361687,43.8217108 Z" id="Combined-Shape-Copy" fill="#FFFFFF"></path>
                <path d="M154.527315,149.620817 L154.527315,65.2530692 C154.527315,62.6656757 152.482377,60.5596577 149.970024,60.5596577 L68.0491573,60.5596577 C65.5368048,60.5596577 63.4918668,62.6656757 63.4918668,65.2530692 L63.4918668,149.620817 C63.4918668,152.208211 65.5368048,154.314229 68.0491573,154.314229 L149.970024,154.314229 C152.482377,154.314229 154.527315,152.208211 154.527315,149.620817 Z M149.970024,53.8738864 C156.062641,53.8738864 161.019181,58.9818157 161.019181,65.2530692 L161.019181,149.620817 C161.019181,155.895414 156.062641,161 149.970024,161 L68.0491573,161 C61.9565403,161 57,155.895414 57,149.620817 L57,65.2530692 C57,58.9818157 61.9565403,53.8738864 68.0491573,53.8738864 L149.970024,53.8738864 Z M181.872132,70.6154551 L181.872132,145.664449 L186,145.664449 L178.520129,160.999331 L171.026823,145.664449 L175.154691,145.664449 L175.154691,70.6154551 L171.030182,70.6154551 L178.510053,55.2805727 L186,70.6154551 L181.872132,70.6154551 Z M72.0361687,40.8217108 L72.0361687,44.9385202 L57.0003246,37.4692601 L72.0361687,30 L72.0361687,34.1168094 L145.621668,34.1168094 L145.621668,30 L160.660778,37.4692601 L145.621668,44.9385202 L145.621668,40.8217108 L72.0361687,40.8217108 Z" id="Combined-Shape" fill="#946ADE"></path>
            </g>
        </g>
    </g>
</svg>