<?xml version="1.0" encoding="UTF-8"?>
<svg width="89px" height="107px" viewBox="0 0 89 107" version="1.1" xmlns="http://www.w3.org/2000/svg">
    <!-- Generator: sketchtool 52.3 (67297) - http://www.bohemiancoding.com/sketch -->
    <title>5DC1CF50-4FAC-48D2-A66C-7E1591759134</title>
    <desc>Created with sketchtool.</desc>
    <g id="UI-kit" stroke="none" stroke-width="1" fill="none" fill-rule="evenodd">
        <g transform="translate(-394.000000, -3697.000000)" id="Group-22">
            <g transform="translate(394.000000, 3697.000000)">
                <g id="Group-20" transform="translate(5.000000, 4.000000)">
                    <g id="Group">
                        <path d="M40,0 L0,12.4000549 L0,45.5995262 C0,58.7998642 2.4743573,90.4002138 40,100 C77.5256427,90.4002138 80,58.7998642 80,45.5995262 L80,12.4000549 L40,0 Z"
                              id="Stroke-3-Copy-2" fill="#EDF0FA"></path>
                        <g id="Group-9" transform="translate(13.000000, 24.000000)">
                            <polygon id="Fill-1" fill="#976CE3"
                                     points="27.81282 0.000413513514 8.61975333 4.3151973 13.9327533 21.9382243"></polygon>
                            <polygon id="Fill-2" fill="#6B4CA1"
                                     points="0 21.9381324 27.8128667 50.6759432 13.9328 21.9381324"></polygon>
                            <polygon id="Fill-3" fill="#815CC2"
                                     points="0 21.9381324 13.9328 21.9381324 8.6198 4.31556486"></polygon>
                            <polygon id="Fill-4" fill="#A979FE"
                                     points="27.81282 0.000413513514 13.9327533 21.9386838 27.81282 21.9386838 41.69242 21.9386838"></polygon>
                            <polygon id="Fill-5" fill="#976CE3"
                                     points="27.81282 0.000413513514 41.69242 21.9382243 47.00542 4.3151973"></polygon>
                            <polygon id="Fill-6" fill="#946ADE"
                                     points="27.81282 21.9385459 13.9327533 21.9385459 27.81282 50.6758973 41.69242 21.9385459"></polygon>
                            <polygon id="Fill-7" fill="#6B4CA1"
                                     points="41.69256 21.9381324 27.81296 50.6759432 55.62536 21.9381324"></polygon>
                            <polygon id="Fill-8" fill="#815CC2"
                                     points="41.69256 21.9381324 55.62536 21.9381324 47.00556 4.31556486"></polygon>
                        </g>
                    </g>
                </g>
            </g>
        </g>
    </g>
</svg>