<?xml version="1.0" encoding="UTF-8"?>
<svg width="89px" height="107px" viewBox="0 0 89 107" version="1.1" xmlns="http://www.w3.org/2000/svg">
    <!-- Generator: sketchtool 52.3 (67297) - http://www.bohemiancoding.com/sketch -->
    <title>65298A14-EDEF-40BD-A342-F6A81B21474F</title>
    <desc>Created with sketchtool.</desc>
    <g id="UI-kit" stroke="none" stroke-width="1" fill="none" fill-rule="evenodd">
        <g transform="translate(-251.000000, -3697.000000)" id="Group-23">
            <g transform="translate(251.000000, 3697.000000)">
                <g id="Group-19" transform="translate(5.000000, 4.000000)">
                    <path d="M40,0 L0,12.4000549 L0,45.5995262 C0,58.7998642 2.4743573,90.4002138 40,100 C77.5256427,90.4002138 80,58.7998642 80,45.5995262 L80,12.4000549 L40,0 Z"
                          id="Stroke-3" fill="#EDF0FA"></path>
                    <g id="Group-11" transform="translate(13.000000, 25.000000)">
                        <polygon id="Fill-1" fill="#E9769C"
                                 points="27.81282 0.306275676 8.61975333 4.62105946 13.9327533 22.2440865"></polygon>
                        <polygon id="Fill-2" fill="#D03A65"
                                 points="7.81597009e-14 22.2439946 27.8128667 50.9818054 13.9328 22.2439946"></polygon>
                        <polygon id="Fill-3" fill="#EB5680"
                                 points="-1.17239551e-13 22.2439946 13.9328 22.2439946 8.6198 4.62142703"></polygon>
                        <polygon id="Fill-4" fill="#F5A3BD"
                                 points="27.81282 0.306275676 13.9327533 22.2445459 27.81282 22.2445459 41.69242 22.2445459"></polygon>
                        <polygon id="Fill-5" fill="#E9769C"
                                 points="27.81282 0.306275676 41.69242 22.2440865 47.00542 4.62105946"></polygon>
                        <polygon id="Fill-6" fill="#EB5680"
                                 points="27.81282 22.2444081 13.9327533 22.2444081 27.81282 50.9817595 41.69242 22.2444081"></polygon>
                        <polygon id="Fill-7" fill="#D03A65"
                                 points="41.69256 22.2439946 27.81296 50.9818054 55.62536 22.2439946"></polygon>
                        <polygon id="Fill-8" fill="#EB5680"
                                 points="41.69256 22.2439946 55.62536 22.2439946 47.00556 4.62142703"></polygon>
                    </g>
                </g>
            </g>
        </g>
    </g>
</svg>