<?xml version="1.0" encoding="UTF-8"?>
<svg width="104px" height="192px" viewBox="0 0 104 192" version="1.1" xmlns="http://www.w3.org/2000/svg" xmlns:xlink="http://www.w3.org/1999/xlink">
    <!-- Generator: sketchtool 52.3 (67297) - http://www.bohemiancoding.com/sketch -->
    <title>96E0A14D-7EFB-4CE6-B408-A3CD21003CEA</title>
    <desc>Created with sketchtool.</desc>
    <g id="UI-kit" stroke="none" stroke-width="1" fill="none" fill-rule="evenodd">
        <g transform="translate(-97.000000, -5834.000000)" fill="#3EC5B0" id="Group-46">
            <g transform="translate(97.000000, 5834.000000)">
                <path d="M2.48415436,14.4787127 C-0.828051455,11.1665069 -0.828051455,5.79636018 2.48415436,2.48415436 C5.79636018,-0.828051455 11.1665069,-0.828051455 14.4787127,2.48415436 C17.7909185,5.79636018 17.7909185,11.1665069 14.4787127,14.4787127 C11.1665069,17.7909185 5.79636018,17.7909185 2.48415436,14.4787127 Z M31.613796,43.6083543 C28.3015902,40.2961485 28.3015902,34.9260018 31.613796,31.613796 C34.9260018,28.3015902 40.2961485,28.3015902 43.6083543,31.613796 C46.9205601,34.9260018 46.9205601,40.2961485 43.6083543,43.6083543 C40.2961485,46.9205601 34.9260018,46.9205601 31.613796,43.6083543 Z M60.7434376,72.7379959 C57.4312318,69.4257901 57.4312318,64.0556434 60.7434376,60.7434376 C64.0556434,57.4312318 69.4257901,57.4312318 72.7379959,60.7434376 C76.0502017,64.0556434 76.0502017,69.4257901 72.7379959,72.7379959 C69.4257901,76.0502017 64.0556434,76.0502017 60.7434376,72.7379959 Z M89.8730792,101.867638 C86.5608734,98.5554317 86.5608734,93.185285 89.8730792,89.8730792 C93.185285,86.5608734 98.5554317,86.5608734 101.867638,89.8730792 C105.179843,93.185285 105.179843,98.5554317 101.867638,101.867638 C98.5554317,105.179843 93.185285,105.179843 89.8730792,101.867638 Z M2.48415436,72.7379959 C-0.828051455,69.4257901 -0.828051455,64.0556434 2.48415436,60.7434376 C5.79636018,57.4312318 11.1665069,57.4312318 14.4787127,60.7434376 C17.7909185,64.0556434 17.7909185,69.4257901 14.4787127,72.7379959 C11.1665069,76.0502017 5.79636018,76.0502017 2.48415436,72.7379959 Z M31.613796,101.867638 C28.3015902,98.5554317 28.3015902,93.185285 31.613796,89.8730792 C34.9260018,86.5608734 40.2961485,86.5608734 43.6083543,89.8730792 C46.9205601,93.185285 46.9205601,98.5554317 43.6083543,101.867638 C40.2961485,105.179843 34.9260018,105.179843 31.613796,101.867638 Z M60.7434376,130.997279 C57.4312318,127.685073 57.4312318,122.314927 60.7434376,119.002721 C64.0556434,115.690515 69.4257901,115.690515 72.7379959,119.002721 C76.0502017,122.314927 76.0502017,127.685073 72.7379959,130.997279 C69.4257901,134.309485 64.0556434,134.309485 60.7434376,130.997279 Z M2.48415436,130.997279 C-0.828051455,127.685073 -0.828051455,122.314927 2.48415436,119.002721 C5.79636018,115.690515 11.1665069,115.690515 14.4787127,119.002721 C17.7909185,122.314927 17.7909185,127.685073 14.4787127,130.997279 C11.1665069,134.309485 5.79636018,134.309485 2.48415436,130.997279 Z M31.613796,160.126921 C28.3015902,156.814715 28.3015902,151.444568 31.613796,148.132362 C34.9260018,144.820157 40.2961485,144.820157 43.6083543,148.132362 C46.9205601,151.444568 46.9205601,156.814715 43.6083543,160.126921 C40.2961485,163.439127 34.9260018,163.439127 31.613796,160.126921 Z M2.48415436,189.256562 C-0.828051455,185.944357 -0.828051455,180.57421 2.48415436,177.262004 C5.79636018,173.949798 11.1665069,173.949798 14.4787127,177.262004 C17.7909185,180.57421 17.7909185,185.944357 14.4787127,189.256562 C11.1665069,192.568768 5.79636018,192.568768 2.48415436,189.256562 Z" id="Combined-Shape"></path>
            </g>
        </g>
    </g>
</svg>