<?xml version="1.0" encoding="UTF-8"?>
<svg width="150px" height="301px" viewBox="0 0 150 301" version="1.1" xmlns="http://www.w3.org/2000/svg" xmlns:xlink="http://www.w3.org/1999/xlink">
    <!-- Generator: sketchtool 52.3 (67297) - http://www.bohemiancoding.com/sketch -->
    <title>43497CD2-CA28-44B3-81FC-89D26FE8F05B</title>
    <desc>Created with sketchtool.</desc>
    <g id="UI-kit" stroke="none" stroke-width="1" fill="none" fill-rule="evenodd">
        <g transform="translate(-704.000000, -5447.000000)" fill="#95ECE3" id="Group-41">
            <g transform="translate(704.000000, 5447.000000)">
                <path d="M-5.68434189e-14,300.917656 L-5.68434189e-14,248.895711 C13.7744977,248.409905 27.6641618,244.980579 40.7546452,238.310644 C88.7231337,213.869479 107.795797,155.169856 83.3546316,107.201368 C66.7155837,74.5453972 34.1990799,55.2815125 -5.15143483e-14,54.0219093 L-5.68434189e-14,2 C53.1192804,3.29074976 103.861333,32.9325905 129.677102,83.5988901 C167.153556,157.150572 137.908805,247.156661 64.3571227,284.633115 C43.6935671,295.161722 21.7313167,300.424234 -5.5067062e-14,300.917656 Z" id="Combined-Shape"></path>
            </g>
        </g>
    </g>
</svg>