<?xml version="1.0" encoding="UTF-8"?>
<svg width="135px" height="276px" viewBox="0 0 135 276" version="1.1" xmlns="http://www.w3.org/2000/svg" xmlns:xlink="http://www.w3.org/1999/xlink">
    <!-- Generator: sketchtool 52.3 (67297) - http://www.bohemiancoding.com/sketch -->
    <title>0FC39182-6DAE-420D-B915-5649E1FFD118</title>
    <desc>Created with sketchtool.</desc>
    <g id="UI-kit" stroke="none" stroke-width="1" fill="none" fill-rule="evenodd">
        <g transform="translate(-1141.000000, -5450.000000)" fill="#813FCC" id="Group-45">
            <g transform="translate(1141.000000, 5450.000000)">
                <path d="M-1.42108547e-14,274.986731 L-1.42108547e-14,224.990049 C6.08293673,224.990049 12.1658735,222.669486 16.8069977,218.028362 L79.0383136,155.797046 C88.3205621,146.514798 88.3205621,131.465299 79.0383136,122.183051 L16.8069977,59.9517349 C12.1658735,55.3106107 6.08293673,52.9900485 -1.50990331e-14,52.9900485 L-1.42108547e-14,3.9933657 C9.41681623,4.11831968 18.7954893,7.77344849 25.9807929,14.9587521 L124.031296,113.009256 C138.656235,127.634194 138.656235,151.345903 124.031296,165.970841 L25.9807929,264.021345 C18.7954893,271.206649 9.41681623,274.861777 6.57252031e-14,274.986731 Z" id="Combined-Shape"></path>
            </g>
        </g>
    </g>
</svg>