<?xml version="1.0" encoding="UTF-8"?>
<svg xmlns:xlink="http://www.w3.org/1999/xlink" width="66px" height="85px" viewBox="0 0 66 85" version="1.1"
     xmlns="http://www.w3.org/2000/svg">
    <!-- Generator: sketchtool 52.3 (67297) - http://www.bohemiancoding.com/sketch -->
    <title>A3A7418A-AFF8-4CC6-B0A3-94D0FA49AAD5</title>
    <desc>Created with sketchtool.</desc>
    <defs>
        <polygon id="path-1"
                 points="0.000121658986 0.0815827338 65.9399005 0.0815827338 65.9399005 83.6976906 0.000121658986 83.6976906"></polygon>
    </defs>
    <g id="UI-kit" stroke="none" stroke-width="1" fill="none" fill-rule="evenodd">
        <g transform="translate(-1167.000000, -5818.000000)" id="Group-14">
            <g transform="translate(1167.000000, 5818.000000)">
                <g id="Group-3" transform="translate(0.000000, 0.220576)">
                    <mask id="mask-2" fill="white">
                        <use xlink:href="#path-1"></use>
                    </mask>
                    <g id="Clip-2"></g>
                    <path d="M32.9700111,2.49869784 C16.1321032,2.49869784 2.43330138,16.1079065 2.43330138,32.8356906 L2.43330138,50.9434317 C2.43330138,67.6712158 16.1317991,81.2804245 32.9697069,81.2804245 L32.9700111,81.2804245 C49.8079189,81.2804245 63.5067207,67.6712158 63.5067207,50.9434317 L63.5067207,32.8356906 C63.5067207,16.1079065 49.8079189,2.49869784 32.9700111,2.49869784 M32.9700111,83.6976906 C14.7905088,83.6976906 0.000121658986,69.0043381 0.000121658986,50.9434317 L0.000121658986,32.8356906 C0.000121658986,14.7750863 14.7902046,0.0814316547 32.9697069,0.0814316547 C51.1495134,0.0814316547 65.9399005,14.7750863 65.9399005,32.8356906 L65.9399005,50.9434317 C65.9399005,69.0043381 51.1495134,83.6976906 32.9700111,83.6976906"
                          id="Fill-1" fill="#6B4CA1" mask="url(#mask-2)"></path>
                </g>
                <path d="M32.414577,7.17583597 C17.2433972,7.17583597 4.94489032,19.3942101 4.94489032,34.4655626 L4.94489032,50.130354 C4.94489032,65.2023108 17.2433972,77.4206849 32.414577,77.4206849 C47.5854525,77.4206849 59.8839594,65.2023108 59.8839594,50.130354 L59.8839594,34.4655626 C59.8839594,19.3942101 47.5854525,7.17583597 32.414577,7.17583597"
                      id="Fill-4" fill="#FFD36B"></path>
                <path d="M49.6645438,53.9044317 C51.3200184,50.7544317 52.2607465,47.2161583 52.6743871,44.4408345 C53.282682,44.0434964 54.5856498,43.3189209 56.0002396,43.3189209 C57.7700737,43.3189209 58.6676129,44.1752374 58.6676129,45.8643022 C58.6676129,49.2572374 54.3064424,52.9335971 49.6645438,53.9044317 Z M22.7505346,58.0772374 C17.4069677,54.8190647 15.1824332,45.6669928 15.1824332,41.3965899 C15.1824332,40.4807482 15.4221014,39.7848777 15.8950507,39.3274101 C16.6907005,38.5575108 17.9574747,38.5810791 17.9626452,38.5828921 L47.6675115,38.5841007 L47.7094839,38.5831942 C47.7213456,38.5813813 48.9902488,38.5581151 49.7855945,39.3274101 C50.2585438,39.7845755 50.498212,40.4807482 50.498212,41.3965899 C50.498212,43.3887194 49.933106,46.8807626 48.6705899,50.1906043 C47.6662949,52.8242158 45.8627005,56.287554 42.9298065,58.0772374 L22.7505346,58.0772374 Z M56.0002396,40.9016547 C54.8511705,40.9016547 53.7918249,41.2074388 52.9286544,41.5736547 C52.9292627,41.5153381 52.9313917,41.4530935 52.9313917,41.3965899 C52.9313917,39.7897122 52.4356313,38.502518 51.4584055,37.5715683 C49.982682,36.1659281 47.9962949,36.1601871 47.6468295,36.1668345 L18.0341198,36.1668345 C17.6889124,36.1571655 15.6985714,36.1653237 14.2222396,37.5715683 C13.2450138,38.5028201 12.7492535,39.7897122 12.7492535,41.3965899 C12.7492535,45.0572374 14.3734009,53.2952806 18.9477788,58.0772374 L14.7505438,58.0772374 C16.1234654,62.8501295 21.2635576,63.2504892 23.8351244,63.2504892 L42.3948111,63.2504892 C48.4926636,63.2504892 51.7148018,58.0772374 51.7148018,58.0772374 L46.7328664,58.0772374 C47.1887834,57.6004317 47.6139816,57.0885755 48.0124147,56.5516403 C50.8561935,56.3990504 53.979788,55.2502446 56.4929585,53.4113094 C59.4212903,51.268705 61.1007926,48.5178561 61.1007926,45.8643022 C61.1007926,43.4651655 59.7607189,40.9016547 56.0002396,40.9016547 Z"
                      id="Fill-6" fill="#D13A66"></path>
                <path d="M30.0559438,31.2089007 C30.0559438,31.8763683 30.6006719,32.4175338 31.2725336,32.4175338 C31.9443954,32.4175338 32.4891235,31.8763683 32.4891235,31.2089007 C32.4891235,28.5659223 33.3191419,27.5053468 34.1981281,26.3825266 C35.0263217,25.3243683 35.9649207,24.1254043 35.9649207,21.9033324 C35.9649207,17.8235914 31.8336857,16.4070734 31.6578885,16.3487568 C31.0191788,16.1375482 30.3311972,16.4795914 30.1185982,17.1126129 C29.9059991,17.7456345 30.250294,18.4303252 30.8871788,18.6415338 C30.9136396,18.6502964 33.531741,19.5455914 33.531741,21.9033324 C33.531741,23.296282 33.0055659,23.968282 32.2774369,24.8986273 C31.287741,26.1631597 30.0559438,27.7368 30.0559438,31.2089007"
                      id="Fill-8" fill="#D13A66"></path>
                <path d="M38.8486037,31.2089007 C38.8486037,31.8763683 39.3933318,32.4175338 40.0651935,32.4175338 C40.7370553,32.4175338 41.2817834,31.8763683 41.2817834,31.2089007 C41.2817834,28.5659223 42.1118018,27.5053468 42.990788,26.3825266 C43.8189816,25.3243683 44.7575806,24.1254043 44.7575806,21.9033324 C44.7575806,17.8235914 40.6263456,16.4070734 40.4505484,16.3487568 C39.8133594,16.1375482 39.1238571,16.4795914 38.9112581,17.1126129 C38.698659,17.7456345 39.0429539,18.4303252 39.6798387,18.6415338 C39.7062995,18.6502964 42.3244009,19.5455914 42.3244009,21.9033324 C42.3244009,23.296282 41.7982258,23.968282 41.0700968,24.8986273 C40.0804009,26.1631597 38.8486037,27.7368 38.8486037,31.2089007"
                      id="Fill-10" fill="#D13A66"></path>
                <path d="M20.9232166,31.2089007 C20.9232166,31.8763683 21.4679447,32.4175338 22.1398065,32.4175338 C22.8116682,32.4175338 23.3563963,31.8763683 23.3563963,31.2089007 C23.3563963,28.5659223 24.1864147,27.5053468 25.0654009,26.3825266 C25.8935945,25.3243683 26.8321935,24.1254043 26.8321935,21.9033324 C26.8321935,17.8235914 22.7009585,16.4070734 22.5251613,16.3487568 C21.8879724,16.1375482 21.19847,16.4795914 20.985871,17.1126129 C20.7732719,17.7456345 21.1175668,18.4303252 21.7544516,18.6415338 C21.7809124,18.6502964 24.3990138,19.5455914 24.3990138,21.9033324 C24.3990138,23.296282 23.8728387,23.968282 23.1447097,24.8986273 C22.1550138,26.1631597 20.9232166,27.7368 20.9232166,31.2089007"
                      id="Fill-12" fill="#D13A66"></path>
            </g>
        </g>
    </g>
</svg>