<?xml version="1.0" encoding="UTF-8"?>
<svg width="244px" height="77px" viewBox="0 0 244 77" version="1.1" xmlns="http://www.w3.org/2000/svg" xmlns:xlink="http://www.w3.org/1999/xlink">
    <!-- Generator: sketchtool 52.1 (67048) - http://www.bohemiancoding.com/sketch -->
    <title>9E79394E-F73D-4569-9A12-A78FD6858B37</title>
    <desc>Created with sketchtool.</desc>
    <defs>
        <polygon id="path-1" points="1.57480315e-05 0.145354331 56.6748193 0.145354331 56.6748193 39.8425197 1.57480315e-05 39.8425197"></polygon>
    </defs>
    <g id="Design" stroke="none" stroke-width="1" fill="none" fill-rule="evenodd">
        <g id="Slider-Video-Copy-6" transform="translate(-598.000000, -10524.000000)">
            <rect id="Rectangle-Copy-5" fill="#2A3047" x="0" y="5311" width="1440" height="8748"></rect>
            <g id="Group-38" transform="translate(598.000000, 10524.000000)">
                <rect id="Rectangle-Copy-32" fill="#313954" x="0" y="0" width="244" height="77" rx="8"></rect>
                <g id="Group-37" transform="translate(31.000000, 19.000000)">
                    <rect id="Rectangle" fill="#FFFFFF" x="14" y="7" width="28" height="28"></rect>
                    <g id="Group-3" transform="translate(-0.000000, 0.012126)">
                        <mask id="mask-2" fill="white">
                            <use xlink:href="#path-1"></use>
                        </mask>
                        <g id="Clip-2"></g>
                        <path d="M37.522378,20.0195906 C32.525685,17.1381732 27.6609606,14.3329764 22.7428504,11.4969134 L22.7428504,28.544 C27.6768661,25.6983307 32.5201732,22.9046299 37.522378,20.0195906 Z M33.3557638,0.145259843 C33.6529291,0.178015748 33.9491496,0.226519685 34.2469449,0.240850394 C38.5250551,0.446519685 42.8045827,0.627779528 47.0809606,0.863527559 C48.1389134,0.921795276 49.2097795,1.064 50.2359213,1.3216378 C53.3412756,2.10132283 55.1245827,4.15990551 55.7248976,7.27187402 C56.5534016,11.5677795 56.6822205,15.9202205 56.6745039,20.2743937 C56.6672598,24.2351811 56.4834803,28.1910866 55.8545039,32.1117165 C55.1639528,36.4145512 52.8787559,38.5707717 48.5448976,39.0529764 C42.4113543,39.7356535 36.2489921,39.8495118 30.0911969,39.8422677 C24.3266299,39.8353386 18.5612756,39.6241575 12.7985984,39.4309291 C10.9526142,39.3688819 9.10505512,39.1406929 7.27434646,38.8762835 C3.85292913,38.3824252 1.51261417,36.1553386 1.01844094,32.6570709 C0.569622047,29.4783307 0.408047244,26.2592756 0.117968504,23.0581732 C0.0848976378,22.6934488 0.0395433071,22.3296693 1.57480315e-05,21.9655748 L1.57480315e-05,18.0740787 C0.0389133858,17.7334488 0.0848976378,17.3937638 0.11576378,17.0525039 C0.406472441,13.8315591 0.573874016,10.5937638 1.01686614,7.39392126 C1.48332283,4.02541732 3.7083622,1.80762205 6.8867874,1.18683465 C7.70190551,1.02762205 8.53198425,0.905417323 9.36048819,0.861322835 C13.4019055,0.646047244 17.4450551,0.464314961 21.4874173,0.266362205 C22.0622205,0.238330709 22.6359213,0.186362205 23.2100945,0.145259843 L33.3557638,0.145259843 Z" id="Fill-1" fill="#FF0000" mask="url(#mask-2)"></path>
                    </g>
                    <path d="M150.362236,24.9918898 C150.362236,27.1890551 150.359402,29.3862205 150.366488,31.5833858 C150.367276,31.8077953 150.361449,32.0737795 150.471843,32.2493701 C150.961449,33.0281102 151.669638,33.4433858 152.61515,33.4065354 C153.487748,33.3725197 154.03389,32.8986614 154.318299,32.1145669 C154.482551,31.6616535 154.672157,31.1854331 154.684913,30.7151969 C154.787118,26.9747244 154.887118,23.2333071 154.897512,19.4918898 C154.899874,18.5648031 154.65578,17.6106299 154.373732,16.7164567 C154.058299,15.7162992 153.092157,15.3758268 152.118772,15.7799213 C151.14885,16.1825984 150.365858,17.3405512 150.363811,18.4005512 C150.359087,20.5977165 150.362236,22.7947244 150.362236,24.9918898 Z M150.109795,34.5962992 C149.929638,35.3481102 149.806803,35.9514173 149.630898,36.5388189 C149.576724,36.7205512 149.381449,36.993622 149.245386,36.9967717 C147.840031,37.0306299 146.433732,37.0175591 144.984598,37.0175591 L144.984598,1.76480315 L150.297512,1.76480315 L150.297512,14.6002362 C150.346016,14.6188189 150.394835,14.6374016 150.443496,14.6559843 C150.578772,14.4640157 150.713732,14.2718898 150.849795,14.0803937 C152.19074,12.1923622 154.364913,11.3435433 156.565701,11.8148819 C158.065386,12.1361417 158.988378,13.0803937 159.551843,14.4488976 C160.252472,16.15 160.439559,17.9580315 160.461449,19.7570866 C160.504283,23.2961417 160.500504,26.8408661 160.341134,30.3753543 C160.280189,31.7314173 159.849638,33.1038583 159.393732,34.4007087 C158.813575,36.0507874 157.64822,37.1948819 155.815622,37.3915748 C153.719087,37.6169291 151.930425,36.9901575 150.597039,35.2840157 C150.459874,35.1084252 150.338772,34.9205512 150.109795,34.5962992 Z M97.7192126,12.2402835 L103.248976,12.2402835 L103.248976,13.0966614 C103.249134,18.816189 103.241102,24.5355591 103.25937,30.2550866 C103.261575,30.9889449 103.331024,31.7380787 103.492913,32.4520945 C103.690079,33.3218583 104.193228,33.608315 105.084567,33.5347717 C106.345827,33.4303622 107.256378,32.4566614 107.256535,31.2075276 C107.257008,25.2102047 107.256693,19.2130394 107.256693,13.2157165 L107.256693,12.2605984 L112.784724,12.2605984 L112.784724,37.0413858 L108.465354,37.0413858 C108.305039,36.0576063 108.146142,35.0824882 107.960945,33.9473701 C107.734961,34.2788661 107.58189,34.4902047 107.442362,34.7100472 C106.045669,36.9072126 103.866457,37.8602835 101.305197,37.3911496 C99.4285039,37.0473701 98.1910236,35.5944567 97.8677165,33.2782362 C97.7530709,32.4560315 97.6985827,31.6190236 97.6965354,30.7884724 C97.6822047,24.8376063 97.688189,18.8867402 97.6892913,12.9357165 C97.6892913,12.7305197 97.7064567,12.5253228 97.7192126,12.2402835 Z M137.183717,37.0503465 C137.023087,36.0679843 136.864504,35.0961732 136.670173,33.9067244 C136.430961,34.2849921 136.294268,34.5021575 136.15663,34.7186929 C134.770803,36.902315 132.557417,37.8772756 130.013008,37.3854646 C128.25222,37.0451496 127.193008,35.897748 126.804504,34.2139685 C126.541354,33.0745984 126.405291,31.881685 126.397417,30.7112913 C126.357732,24.7834173 126.386551,18.8550709 126.366079,12.9270394 C126.364031,12.3470394 126.530331,12.1700315 127.106394,12.1857795 C128.471591,12.2232598 129.839622,12.2305039 131.204189,12.1834173 C131.837575,12.1615276 131.973323,12.3876693 131.971276,12.9779055 C131.951748,18.6279843 131.952063,24.2782205 131.969071,29.9284567 C131.971276,30.733811 132.023874,31.5520787 132.176787,32.3404252 C132.370803,33.3404252 133.023874,33.7034173 134.029386,33.5105039 C135.21537,33.2832598 135.951118,32.3923937 135.951118,31.1824724 C135.951276,25.1618425 135.951276,19.1408976 135.951276,13.1202677 L135.951276,12.2505039 L141.459937,12.2505039 L141.459937,37.0503465 L137.183717,37.0503465 Z M89.1874488,24.6338583 C89.158,24.6330709 89.1287087,24.6322835 89.0991024,24.6316535 C89.0991024,22.9182677 89.1589449,21.2020472 89.0761102,19.4927559 C89.0287087,18.5135433 88.8150079,17.5275591 88.553748,16.5784252 C88.3581575,15.8685039 87.7669764,15.5310236 87.001937,15.5414173 C86.2317008,15.5516535 85.7135906,15.9385827 85.4756378,16.631811 C85.2748504,17.2166929 85.0754803,17.8377953 85.0642992,18.4462992 C84.9964252,22.1486614 84.9428819,25.8522835 84.9762677,29.5548031 C84.9854016,30.5762205 85.241937,31.6122835 85.5080787,32.6089764 C85.6883937,33.2851969 86.2764252,33.6299213 86.9973701,33.6532283 C87.7257165,33.6770079 88.2614646,33.3382677 88.5318583,32.6788976 C88.7312283,32.1927559 88.9228819,31.6688189 88.9499685,31.1529134 C89.0635118,28.9815748 89.1139055,26.8070866 89.1874488,24.6338583 Z M94.9167402,24.9587402 C94.7082362,27.1255118 94.6589449,29.5033071 94.218,31.8061417 C93.4504409,35.8135433 91.2220945,37.5059843 87.1454016,37.5025197 C86.4770551,37.5018898 85.8000472,37.4455118 85.1420945,37.3303937 C82.0627244,36.7914961 80.3918583,35.2674016 79.8208346,32.1015748 C78.9556378,27.3055118 78.9320157,22.4601575 79.7773701,17.663937 C80.5909134,13.0491339 83.5373701,11.4028346 88.0312283,11.7833071 C91.8483937,12.1066142 93.7361102,14.0037795 94.334063,18.0541732 C94.6606772,20.2667717 94.7202047,22.5185827 94.9167402,24.9587402 Z M74.2328189,36.9873071 L68.7847874,36.9873071 L68.7847874,36.1554961 C68.7847874,33.2140787 68.8035276,30.2723465 68.7714016,27.3314016 C68.763685,26.6032126 68.6728189,25.8543937 68.4813228,25.1529764 C66.5329764,18.0154961 64.5559685,10.8860472 62.588252,3.75392126 C62.5274646,3.53392126 62.4814803,3.30982677 62.4139213,3.02620472 L67.9312441,3.02620472 C69.1096693,8.63124409 70.2951811,14.2709291 71.5132913,20.0652598 C71.8304567,18.464 72.0975433,17.0019528 72.4117165,15.5499843 C73.2819528,11.5271496 74.1665197,7.50730709 75.0693543,3.49171654 C75.1142362,3.29234646 75.3817953,2.99817323 75.5512441,2.9943937 C77.2151811,2.95691339 78.880378,2.97187402 80.632189,2.97187402 C80.5624252,3.30148031 80.5219528,3.56588976 80.4504567,3.82195276 C78.4421102,11.0143937 76.4274646,18.2052598 74.4271496,25.400063 C74.3052598,25.8386457 74.2433701,26.3080945 74.2411654,26.763685 C74.2252598,29.8671496 74.2328189,32.9707717 74.2328189,36.0742362 L74.2328189,36.9873071 Z M168.451874,23.1428661 L172.54715,23.1428661 C172.54715,21.4225512 172.572819,19.7433386 172.531717,18.0657008 C172.518961,17.5472756 172.426677,16.9764094 172.181953,16.5340472 C171.960693,16.1340472 171.531717,15.7214488 171.10715,15.5847559 C169.78337,15.1582992 168.880693,15.8090079 168.737228,17.3666457 C168.564,19.2457008 168.543685,21.1387717 168.451874,23.1428661 Z M177.810299,26.3825512 L168.60463,26.3825512 C168.573921,26.5827087 168.525732,26.7357795 168.531087,26.8869606 C168.588724,28.5044409 168.600535,30.1261732 168.736598,31.7373543 C168.837071,32.9315276 169.46022,33.5471181 170.404472,33.6449134 C171.527465,33.7612913 172.330299,33.275622 172.595024,32.1816063 C172.805102,31.3135748 172.872661,30.4107402 173.018646,29.4216063 C174.534709,29.5030236 176.090299,29.5863307 177.628409,29.6688504 C178.573764,33.3307402 176.069039,36.8423937 172.215024,37.2343622 C171.075496,37.3504252 169.893134,37.3567244 168.763213,37.1905827 C165.90715,36.7708976 164.400063,34.875937 163.749669,32.2042835 C163.520693,31.2642835 163.309827,30.2979843 163.274709,29.3367244 C163.130772,25.3863307 162.872661,21.4272756 163.58463,17.4990866 C163.678803,16.9787717 163.842268,16.4682205 164.006677,15.963811 C164.832346,13.4291654 166.617701,12.0173543 169.228882,11.7447559 C170.389354,11.623811 171.590299,11.6834961 172.752189,11.827748 C175.254236,12.1384567 176.716283,13.6910551 177.304315,16.0661732 C177.569354,17.1370394 177.753606,18.2508976 177.788252,19.3510551 C177.86085,21.659874 177.810299,23.9724724 177.810299,26.3825512 Z M127.997118,3.03229921 L127.997118,7.47781102 L122.470976,7.47781102 L122.470976,36.9762362 L117.059008,36.9762362 L117.059008,7.50426772 L111.536016,7.50426772 L111.536016,3.03229921 L127.997118,3.03229921 Z" id="Combined-Shape" fill="#FFFFFF"></path>
                </g>
            </g>
        </g>
    </g>
</svg>